{
	"map": [
		"       ",
		"   G   ",
		"   L   ",
		"   L   ",
		"   L   ",
		"   L   ",
		"  LLL  ",
		" LLLLL ",
		"       ",
		"S      ",
		"       "
	],
	"x_spacing": 1.1,
	"y_spacing": 1.1,
	"thickness": 0.1,
	"zero_distance": 1,
	"max_depth": 0.25,
	"salamander_rotation_rad": -1.5707
}
