{
	"map": [
		"LLLLLLL",
		"LLLGLLL",
		"LLLLLLL",
		"LLLLLLL",
		"LLLLLLL",
		"LLLLLLL",
		"LLLLLLL",
		"LLLLLLL",
		"LLLLLLL",
		"LLLLLLL",
		"LLLLLLL",
		"LLLLLLL",
		"LLLLLLL",
		"LLLLLLL",
		"LLLLLLL",
		"LLLLLLL",
		"LLLLLLL",
		"LLLLLLL",
		"LLLLLLL",
		"LLLLLLL",
		"LLLL   ",
		"LLLL S ",
		"LLLL   "
	],
	"x_spacing": 1.1,
	"y_spacing": 1.1,
	"thickness": 0.1,
	"zero_distance": 1,
	"max_depth": 0.25,
	"salamander_rotation_rad": -1.5707
}
